<OTA_HotelDescriptiveInfoRS xmlns:xsi="http://www.w3.org/2001/XMLSchema-instance"
                            xmlns="http://www.opentravel.org/OTA/2003/05"
                            Version="3.000">

  <Success/>
  <HotelDescriptiveContents>
    <HotelDescriptiveContent HotelCode="123" HotelName="Frangart Inn">

    <!-- ... see file in development kit ... -->

    </HotelDescriptiveContents>
  </HotelDescriptiveContents>

</OTA_HotelDescriptiveInfoRS>
