<BookingRule Start="2016-01-01" End="2017-12-31" Code="double" CodeContext="ROOMTYPE">
    <DOW_Restrictions>
        <ArrivalDaysOfWeek   Mon="0" Tue="0" Weds="0"          Fri="0"         Sun="0"/>
        <DepartureDaysOfWeek Mon="0" Tue="0" Weds="0"          Fri="0"         Sun="0"/>
    </DOW_Restrictions>
</BookingRule>
