<?xml version="1.0" encoding="UTF-8"?>

<OTA_HotelAvailNotifRS
        xmlns:xsi="http://www.w3.org/2001/XMLSchema-instance"
        xmlns="http://www.opentravel.org/OTA/2003/05"
        xsi:schemaLocation="http://www.opentravel.org/OTA/2003/05 OTA_HotelAvailNotifRS.xsd"
        Version="1.001">

        <Success/>
        <Warnings>
             <Warning Type="11">
                last full data set received more than 48 hours ago
            </Warning>
        </Warnings>

</OTA_HotelAvailNotifRS>
